Data manipulation with dplyr
…
# recode race (HH_RACE column) according to data dictionary: http://nhts.ornl.gov/tables09/CodebookPage.aspx?id=951
dd %>% mutate(hh_race_str=recode(HH_RACE, 
                                 "01"="White",
                                 "02"="African American, Black",
                                 "03"="Asian Only",
                                 "04"="American Indian, Alaskan Native",
                                 "05"="Native Hawaiian, other Pacific",
                                 "06"="Multiracial",
                                 "07"="Hispanic/Mexican",
                                 "97"="Other specify",
                                 .default = as.character(NA) # any unspecified values would be assgined NA
                                 )) %>% 
  select(HH_RACE, hh_race_str)

## # A tibble: 304 x 2
##    HH_RACE hh_race_str
##    <chr>   <chr>      
##  1 01      White      
##  2 01      White      
##  3 01      White      
##  4 01      White      
##  5 01      White      
##  6 01      White      
##  7 01      White      
##  8 01      White      
##  9 01      White      
## 10 01      White      
## # ... with 294 more rows

a logical condition: if_else

# code driving & non-driving based on travel modes (TRPTRANS column) data dictionary: http://nhts.ornl.gov/tables09/CodebookPage.aspx?id=1084
dd %>% mutate(driving=ifelse(TRPTRANS %in% c("01", "02", "03", "04", "05", "06", "07"), 1, 0),
              driving=ifelse(TRPTRANS %in% c("-1", "-7", "-8", "-9"), NA, driving) # retain missing values as NA
             ) %>% 
  select(TRPTRANS, driving)

## # A tibble: 304 x 2
##    TRPTRANS driving
##    <chr>      <dbl>
##  1 03             1
##  2 03             1
##  3 03             1
##  4 03             1
##  5 03             1
##  6 03             1
##  7 03             1
##  8 03             1
##  9 03             1
## 10 03             1
## # ... with 294 more rows

multiple logical conditions: case_when

# code driving & non-driving based on travel modes (TRPTRANS column) data dictionary: http://nhts.ornl.gov/tables09/CodebookPage.aspx?id=1084 use case_when
dd %>% mutate(driving=case_when(
  TRPTRANS %in% c("01", "02", "03", "04", "05", "06", "07") ~ 1, 
  TRPTRANS %in% c("-1", "-7", "-8", "-9") ~ as.double(NA), # retain missing values as NA
  TRUE ~ 0)) %>% 
  select(TRPTRANS, driving)

## # A tibble: 304 x 2
##    TRPTRANS driving
##    <chr>      <dbl>
##  1 03             1
##  2 03             1
##  3 03             1
##  4 03             1
##  5 03             1
##  6 03             1
##  7 03             1
##  8 03             1
##  9 03             1
## 10 03             1
## # ... with 294 more rows
…
